Demetri Pananos Ph.D - Bootstrapping in SQL
…
Two things which have made my stats like easier:

Bootstrapping, and

Tidy data

R’s rsample::bootstraps seems to do one in terms of the other. Take a look at the output of that function. We have, in essence, one bootstrapped dataset per row.

library(tidyverse)
library(rsample )

rsample::bootstraps(cars)

# Bootstrap sampling 
# A tibble: 25 × 2
   splits          id         
   <list>          <chr>      
 1 <split [50/18]> Bootstrap01
 2 <split [50/16]> Bootstrap02
 3 <split [50/16]> Bootstrap03
 4 <split [50/18]> Bootstrap04
 5 <split [50/21]> Bootstrap05
 6 <split [50/19]> Bootstrap06
 7 <split [50/20]> Bootstrap07
 8 <split [50/18]> Bootstrap08
 9 <split [50/20]> Bootstrap09
10 <split [50/19]> Bootstrap10
# … with 15 more rows
…
